{
	"info": {
		"_postman_id": "bc87e500-c532-40ec-a3f4-586e3e99c2c1",
		"name": "pinterest",
		"schema": "https://schema.getpostman.com/json/collection/v2.1.0/collection.json",
		"_exporter_id": "25000676"
	},
	"item": [
		{
			"name": "User Upload",
			"request": {
				"method": "POST",
				"header": [],
				"body": {
					"mode": "formdata",
					"formdata": [
						{
							"key": "file",
							"type": "file",
							"src": "/C:/Users/anhtr/Pictures/Da Nang Trip 07'20/_DSC4932.ARW.jpg"
						}
					]
				},
				"url": {
					"raw": "{{domain}}/user/upload",
					"host": [
						"{{domain}}"
					],
					"path": [
						"user",
						"upload"
					]
				}
			},
			"response": []
		},
		{
			"name": "Post đăng ký",
			"request": {
				"method": "POST",
				"header": [],
				"body": {
					"mode": "raw",
					"raw": "{\r\n    \"email\": \"cautu@gmail.com\",\r\n    \"mat_khau\": \"cautu\",\r\n    \"ho_ten\": \"Cậu Tư\",\r\n    \"tuoi\": 36,\r\n    \"anh_dai_dien\": \"\"\r\n}",
					"options": {
						"raw": {
							"language": "json"
						}
					}
				},
				"url": {
					"raw": "{{domain}}/user/signup",
					"host": [
						"{{domain}}"
					],
					"path": [
						"user",
						"signup"
					]
				}
			},
			"response": []
		},
		{
			"name": "Post đăng nhập",
			"request": {
				"method": "POST",
				"header": [],
				"body": {
					"mode": "raw",
					"raw": "{\r\n    \"email\":\"cauhai@gmail.com\",\r\n    \"password\":\"cauhai\"\r\n}",
					"options": {
						"raw": {
							"language": "json"
						}
					}
				},
				"url": {
					"raw": "{{domain}}/user/login",
					"host": [
						"{{domain}}"
					],
					"path": [
						"user",
						"login"
					]
				}
			},
			"response": []
		},
		{
			"name": "Get danh sách ảnh",
			"protocolProfileBehavior": {
				"disableBodyPruning": true
			},
			"request": {
				"method": "GET",
				"header": [
					{
						"key": "authorization",
						"value": "eyJhbGciOiJIUzI1NiIsInR5cCI6IkpXVCJ9.eyJjb250ZW50Ijp7Im5ndW9pX2R1bmdfaWQiOjYsImVtYWlsIjoiY2F1aGFpQGdtYWlsLmNvbSIsIm1hdF9raGF1IjoiJDJiJDEwJE9HdlVuSWJuTTkvNEN4Z0FNcGpBNC4zMXRwRzdXMDk2L1FQOXppRnRPU0hoaW5uQUNwclQ2IiwiaG9fdGVuIjoiQ-G6rXUgSGFpIiwidHVvaSI6MjgsImFuaF9kYWlfZGllbiI6bnVsbH0sImlhdCI6MTY3Nzc3MzM1NSwiZXhwIjoxNjc3Nzk0OTU1fQ.l8atVfpfN-sV__e8MrzuIt5XugE39vFxcqYNulDNH64",
						"type": "text"
					}
				],
				"body": {
					"mode": "raw",
					"raw": ""
				},
				"url": {
					"raw": "{{domain}}/image/get-image",
					"host": [
						"{{domain}}"
					],
					"path": [
						"image",
						"get-image"
					]
				}
			},
			"response": []
		},
		{
			"name": "Get danh sách ảnh theo tên",
			"protocolProfileBehavior": {
				"disableBodyPruning": true
			},
			"request": {
				"method": "GET",
				"header": [
					{
						"key": "authorization",
						"value": "eyJhbGciOiJIUzI1NiIsInR5cCI6IkpXVCJ9.eyJjb250ZW50Ijp7Im5ndW9pX2R1bmdfaWQiOjYsImVtYWlsIjoiY2F1aGFpQGdtYWlsLmNvbSIsIm1hdF9raGF1IjoiJDJiJDEwJE9HdlVuSWJuTTkvNEN4Z0FNcGpBNC4zMXRwRzdXMDk2L1FQOXppRnRPU0hoaW5uQUNwclQ2IiwiaG9fdGVuIjoiQ-G6rXUgSGFpIiwidHVvaSI6MjgsImFuaF9kYWlfZGllbiI6bnVsbH0sImlhdCI6MTY3Nzc3MzM1NSwiZXhwIjoxNjc3Nzk0OTU1fQ.l8atVfpfN-sV__e8MrzuIt5XugE39vFxcqYNulDNH64",
						"type": "text"
					}
				],
				"body": {
					"mode": "raw",
					"raw": ""
				},
				"url": {
					"raw": "{{domain}}/image/get-image-by-name?ten_hinh=Dunk",
					"host": [
						"{{domain}}"
					],
					"path": [
						"image",
						"get-image-by-name"
					],
					"query": [
						{
							"key": "ten_hinh",
							"value": "Dunk"
						}
					]
				}
			},
			"response": []
		},
		{
			"name": "Get thông tin ảnh & người tạo ảnh qua ID ảnh",
			"protocolProfileBehavior": {
				"disableBodyPruning": true
			},
			"request": {
				"method": "GET",
				"header": [
					{
						"key": "authorization",
						"value": "eyJhbGciOiJIUzI1NiIsInR5cCI6IkpXVCJ9.eyJjb250ZW50Ijp7Im5ndW9pX2R1bmdfaWQiOjYsImVtYWlsIjoiY2F1aGFpQGdtYWlsLmNvbSIsIm1hdF9raGF1IjoiJDJiJDEwJE9HdlVuSWJuTTkvNEN4Z0FNcGpBNC4zMXRwRzdXMDk2L1FQOXppRnRPU0hoaW5uQUNwclQ2IiwiaG9fdGVuIjoiQ-G6rXUgSGFpIiwidHVvaSI6MjgsImFuaF9kYWlfZGllbiI6bnVsbH0sImlhdCI6MTY3Nzc3MzM1NSwiZXhwIjoxNjc3Nzk0OTU1fQ.l8atVfpfN-sV__e8MrzuIt5XugE39vFxcqYNulDNH64",
						"type": "text"
					}
				],
				"body": {
					"mode": "raw",
					"raw": ""
				},
				"url": {
					"raw": "{{domain}}/image/get-image-info-by-id/3",
					"host": [
						"{{domain}}"
					],
					"path": [
						"image",
						"get-image-info-by-id",
						"3"
					]
				}
			},
			"response": []
		},
		{
			"name": "Get thông tin bình luận thông qua ID ảnh",
			"protocolProfileBehavior": {
				"disableBodyPruning": true
			},
			"request": {
				"method": "GET",
				"header": [
					{
						"key": "authorization",
						"value": "eyJhbGciOiJIUzI1NiIsInR5cCI6IkpXVCJ9.eyJjb250ZW50Ijp7Im5ndW9pX2R1bmdfaWQiOjYsImVtYWlsIjoiY2F1aGFpQGdtYWlsLmNvbSIsIm1hdF9raGF1IjoiJDJiJDEwJE9HdlVuSWJuTTkvNEN4Z0FNcGpBNC4zMXRwRzdXMDk2L1FQOXppRnRPU0hoaW5uQUNwclQ2IiwiaG9fdGVuIjoiQ-G6rXUgSGFpIiwidHVvaSI6MjgsImFuaF9kYWlfZGllbiI6bnVsbH0sImlhdCI6MTY3Nzc3MzM1NSwiZXhwIjoxNjc3Nzk0OTU1fQ.l8atVfpfN-sV__e8MrzuIt5XugE39vFxcqYNulDNH64",
						"type": "text"
					}
				],
				"body": {
					"mode": "raw",
					"raw": ""
				},
				"url": {
					"raw": "{{domain}}/image/get-comment-info-by-image-id/2",
					"host": [
						"{{domain}}"
					],
					"path": [
						"image",
						"get-comment-info-by-image-id",
						"2"
					]
				}
			},
			"response": []
		},
		{
			"name": "Get thông tin lưu ảnh qua ID ảnh",
			"protocolProfileBehavior": {
				"disableBodyPruning": true
			},
			"request": {
				"method": "GET",
				"header": [
					{
						"key": "authorization",
						"value": "eyJhbGciOiJIUzI1NiIsInR5cCI6IkpXVCJ9.eyJjb250ZW50Ijp7Im5ndW9pX2R1bmdfaWQiOjYsImVtYWlsIjoiY2F1aGFpQGdtYWlsLmNvbSIsIm1hdF9raGF1IjoiJDJiJDEwJE9HdlVuSWJuTTkvNEN4Z0FNcGpBNC4zMXRwRzdXMDk2L1FQOXppRnRPU0hoaW5uQUNwclQ2IiwiaG9fdGVuIjoiQ-G6rXUgSGFpIiwidHVvaSI6MjgsImFuaF9kYWlfZGllbiI6bnVsbH0sImlhdCI6MTY3Nzc3MzM1NSwiZXhwIjoxNjc3Nzk0OTU1fQ.l8atVfpfN-sV__e8MrzuIt5XugE39vFxcqYNulDNH64",
						"type": "text"
					}
				],
				"body": {
					"mode": "raw",
					"raw": ""
				},
				"url": {
					"raw": "{{domain}}/image/get-save-status/1",
					"host": [
						"{{domain}}"
					],
					"path": [
						"image",
						"get-save-status",
						"1"
					]
				}
			},
			"response": []
		},
		{
			"name": "Post bình luận theo ID ảnh",
			"request": {
				"method": "POST",
				"header": [
					{
						"key": "authorization",
						"value": "eyJhbGciOiJIUzI1NiIsInR5cCI6IkpXVCJ9.eyJjb250ZW50Ijp7Im5ndW9pX2R1bmdfaWQiOjYsImVtYWlsIjoiY2F1aGFpQGdtYWlsLmNvbSIsIm1hdF9raGF1IjoiJDJiJDEwJE9HdlVuSWJuTTkvNEN4Z0FNcGpBNC4zMXRwRzdXMDk2L1FQOXppRnRPU0hoaW5uQUNwclQ2IiwiaG9fdGVuIjoiQ-G6rXUgSGFpIiwidHVvaSI6MjgsImFuaF9kYWlfZGllbiI6bnVsbH0sImlhdCI6MTY3Nzc3MzM1NSwiZXhwIjoxNjc3Nzk0OTU1fQ.l8atVfpfN-sV__e8MrzuIt5XugE39vFxcqYNulDNH64",
						"type": "text"
					}
				],
				"body": {
					"mode": "raw",
					"raw": "{\r\n    \"nguoi_dung_id\": 1,\r\n    \"noi_dung\": \"Hanamichi tên tui cũng từ đây mà ra ;)\",\r\n    \"ngay_binh_luan\": \"2023-02-22\"\r\n}",
					"options": {
						"raw": {
							"language": "json"
						}
					}
				},
				"url": {
					"raw": "{{domain}}/image/post-comment-by-image-id/2",
					"host": [
						"{{domain}}"
					],
					"path": [
						"image",
						"post-comment-by-image-id",
						"2"
					]
				}
			},
			"response": []
		},
		{
			"name": "Get thông tin người dùng qua ID user",
			"protocolProfileBehavior": {
				"disableBodyPruning": true
			},
			"request": {
				"method": "GET",
				"header": [
					{
						"key": "authorization",
						"value": "eyJhbGciOiJIUzI1NiIsInR5cCI6IkpXVCJ9.eyJjb250ZW50Ijp7Im5ndW9pX2R1bmdfaWQiOjYsImVtYWlsIjoiY2F1aGFpQGdtYWlsLmNvbSIsIm1hdF9raGF1IjoiJDJiJDEwJE9HdlVuSWJuTTkvNEN4Z0FNcGpBNC4zMXRwRzdXMDk2L1FQOXppRnRPU0hoaW5uQUNwclQ2IiwiaG9fdGVuIjoiQ-G6rXUgSGFpIiwidHVvaSI6MjgsImFuaF9kYWlfZGllbiI6bnVsbH0sImlhdCI6MTY3Nzc3MzM1NSwiZXhwIjoxNjc3Nzk0OTU1fQ.l8atVfpfN-sV__e8MrzuIt5XugE39vFxcqYNulDNH64",
						"type": "text"
					}
				],
				"body": {
					"mode": "raw",
					"raw": ""
				},
				"url": {
					"raw": "{{domain}}/user/get-user-info/2",
					"host": [
						"{{domain}}"
					],
					"path": [
						"user",
						"get-user-info",
						"2"
					]
				}
			},
			"response": []
		},
		{
			"name": "Get danh sách ảnh lưu theo ID user",
			"protocolProfileBehavior": {
				"disableBodyPruning": true
			},
			"request": {
				"method": "GET",
				"header": [
					{
						"key": "authorization",
						"value": "eyJhbGciOiJIUzI1NiIsInR5cCI6IkpXVCJ9.eyJjb250ZW50Ijp7Im5ndW9pX2R1bmdfaWQiOjYsImVtYWlsIjoiY2F1aGFpQGdtYWlsLmNvbSIsIm1hdF9raGF1IjoiJDJiJDEwJE9HdlVuSWJuTTkvNEN4Z0FNcGpBNC4zMXRwRzdXMDk2L1FQOXppRnRPU0hoaW5uQUNwclQ2IiwiaG9fdGVuIjoiQ-G6rXUgSGFpIiwidHVvaSI6MjgsImFuaF9kYWlfZGllbiI6bnVsbH0sImlhdCI6MTY3Nzc3MzM1NSwiZXhwIjoxNjc3Nzk0OTU1fQ.l8atVfpfN-sV__e8MrzuIt5XugE39vFxcqYNulDNH64",
						"type": "text"
					}
				],
				"body": {
					"mode": "raw",
					"raw": "",
					"options": {
						"raw": {
							"language": "json"
						}
					}
				},
				"url": {
					"raw": "{{domain}}/user/get-image-saved/6",
					"host": [
						"{{domain}}"
					],
					"path": [
						"user",
						"get-image-saved",
						"6"
					]
				}
			},
			"response": []
		},
		{
			"name": "Get danh sách ảnh tạo theo ID user",
			"protocolProfileBehavior": {
				"disableBodyPruning": true
			},
			"request": {
				"method": "GET",
				"header": [
					{
						"key": "authorization",
						"value": "eyJhbGciOiJIUzI1NiIsInR5cCI6IkpXVCJ9.eyJjb250ZW50Ijp7Im5ndW9pX2R1bmdfaWQiOjYsImVtYWlsIjoiY2F1aGFpQGdtYWlsLmNvbSIsIm1hdF9raGF1IjoiJDJiJDEwJE9HdlVuSWJuTTkvNEN4Z0FNcGpBNC4zMXRwRzdXMDk2L1FQOXppRnRPU0hoaW5uQUNwclQ2IiwiaG9fdGVuIjoiQ-G6rXUgSGFpIiwidHVvaSI6MjgsImFuaF9kYWlfZGllbiI6bnVsbH0sImlhdCI6MTY3Nzc3MzM1NSwiZXhwIjoxNjc3Nzk0OTU1fQ.l8atVfpfN-sV__e8MrzuIt5XugE39vFxcqYNulDNH64",
						"type": "text"
					}
				],
				"body": {
					"mode": "raw",
					"raw": ""
				},
				"url": {
					"raw": "{{domain}}/user/get-image-posted/2",
					"host": [
						"{{domain}}"
					],
					"path": [
						"user",
						"get-image-posted",
						"2"
					]
				}
			},
			"response": []
		},
		{
			"name": "Delete ảnh tạo theo ID user",
			"request": {
				"method": "DELETE",
				"header": [
					{
						"key": "authorization",
						"value": "eyJhbGciOiJIUzI1NiIsInR5cCI6IkpXVCJ9.eyJjb250ZW50Ijp7Im5ndW9pX2R1bmdfaWQiOjYsImVtYWlsIjoiY2F1aGFpQGdtYWlsLmNvbSIsIm1hdF9raGF1IjoiJDJiJDEwJE9HdlVuSWJuTTkvNEN4Z0FNcGpBNC4zMXRwRzdXMDk2L1FQOXppRnRPU0hoaW5uQUNwclQ2IiwiaG9fdGVuIjoiQ-G6rXUgSGFpIiwidHVvaSI6MjgsImFuaF9kYWlfZGllbiI6bnVsbH0sImlhdCI6MTY3Nzc3MzM1NSwiZXhwIjoxNjc3Nzk0OTU1fQ.l8atVfpfN-sV__e8MrzuIt5XugE39vFxcqYNulDNH64",
						"type": "text"
					}
				],
				"body": {
					"mode": "raw",
					"raw": "{\r\n    \"idHinhMuonXoa\": 7\r\n}",
					"options": {
						"raw": {
							"language": "json"
						}
					}
				},
				"url": {
					"raw": "{{domain}}/user/delete-image-posted/5",
					"host": [
						"{{domain}}"
					],
					"path": [
						"user",
						"delete-image-posted",
						"5"
					]
				}
			},
			"response": []
		},
		{
			"name": "Post ảnh mới theo ID user",
			"request": {
				"method": "POST",
				"header": [
					{
						"key": "authorization",
						"value": "eyJhbGciOiJIUzI1NiIsInR5cCI6IkpXVCJ9.eyJjb250ZW50Ijp7Im5ndW9pX2R1bmdfaWQiOjYsImVtYWlsIjoiY2F1aGFpQGdtYWlsLmNvbSIsIm1hdF9raGF1IjoiJDJiJDEwJE9HdlVuSWJuTTkvNEN4Z0FNcGpBNC4zMXRwRzdXMDk2L1FQOXppRnRPU0hoaW5uQUNwclQ2IiwiaG9fdGVuIjoiQ-G6rXUgSGFpIiwidHVvaSI6MjgsImFuaF9kYWlfZGllbiI6bnVsbH0sImlhdCI6MTY3Nzc3MzM1NSwiZXhwIjoxNjc3Nzk0OTU1fQ.l8atVfpfN-sV__e8MrzuIt5XugE39vFxcqYNulDNH64",
						"type": "text"
					}
				],
				"body": {
					"mode": "raw",
					"raw": "{\r\n    \"tenHinh\": \"Huggy Waggy\",\r\n    \"duongDan\": \"https://i.pinimg.com/originals/c2/b6/30/c2b6301d1146cf40fe6361acc194747b.png\",\r\n    \"moTa\": \"Quái vật dễ thương\"\r\n}",
					"options": {
						"raw": {
							"language": "json"
						}
					}
				},
				"url": {
					"raw": "{{domain}}/user/post-new-image/6",
					"host": [
						"{{domain}}"
					],
					"path": [
						"user",
						"post-new-image",
						"6"
					]
				}
			},
			"response": []
		},
		{
			"name": "Put edit User",
			"request": {
				"method": "PUT",
				"header": [
					{
						"key": "Content-Type",
						"value": "multipart/form-data",
						"type": "text",
						"disabled": true
					},
					{
						"key": "authorization",
						"value": "eyJhbGciOiJIUzI1NiIsInR5cCI6IkpXVCJ9.eyJjb250ZW50Ijp7Im5ndW9pX2R1bmdfaWQiOjYsImVtYWlsIjoiY2F1aGFpQGdtYWlsLmNvbSIsIm1hdF9raGF1IjoiJDJiJDEwJE9HdlVuSWJuTTkvNEN4Z0FNcGpBNC4zMXRwRzdXMDk2L1FQOXppRnRPU0hoaW5uQUNwclQ2IiwiaG9fdGVuIjoiQ-G6rXUgSGFpIiwidHVvaSI6MjgsImFuaF9kYWlfZGllbiI6bnVsbH0sImlhdCI6MTY3Nzc3MzM1NSwiZXhwIjoxNjc3Nzk0OTU1fQ.l8atVfpfN-sV__e8MrzuIt5XugE39vFxcqYNulDNH64",
						"type": "text"
					}
				],
				"body": {
					"mode": "raw",
					"raw": "{\r\n    \"email\": \"caunam@gmail.com\",\r\n    \"mat_khau\": \"caunam\",\r\n    \"ho_ten\": \"Cậu Năm\",\r\n    \"tuoi\": 45,\r\n    \"anh_dai_dien\": \"1677591842269_My Image.JPG\"\r\n    \r\n}",
					"options": {
						"raw": {
							"language": "json"
						}
					}
				},
				"url": {
					"raw": "{{domain}}/user/user-edit/9",
					"host": [
						"{{domain}}"
					],
					"path": [
						"user",
						"user-edit",
						"9"
					]
				}
			},
			"response": []
		}
	],
	"event": [
		{
			"listen": "prerequest",
			"script": {
				"type": "text/javascript",
				"exec": [
					""
				]
			}
		},
		{
			"listen": "test",
			"script": {
				"type": "text/javascript",
				"exec": [
					""
				]
			}
		}
	],
	"variable": [
		{
			"key": "domain",
			"value": "http://localhost:8080/api",
			"type": "string"
		}
	]
}